"0.0718|0.1379
0.0503|0.1842
0.0299|0.2777
0.0192|0.3643
0.0117|0.4521"	"0.0702|0.1353
0.0491|0.1833
0.0290|0.2673
0.0188|0.3549
0.0116|0.4487"	"0.0700|0.1361
0.0483|0.1847
0.0288|0.2694
0.0185|0.3507
0.0113|0.4334"	"0.0697|0.1351
0.0476|0.1802
0.0281|0.2628
0.0181|0.3427
0.0112|0.4292"	"0.0685|0.1343
0.0474|0.1785
0.0280|0.2639
0.0179|0.3395
0.0111|0.4276"
