"Hit3: 0.0165
Hit5: 0.0196
Hit10: 0.0251
Hit50: 0.0536
MR: 4544.6558
MRR: 0.0173"	"Hit3: 0.0181
Hit5: 0.0208
Hit10: 0.0261
Hit50: 0.0570
MR: 4526.7256
MRR: 0.0184"	"Hit3: 0.0185
Hit5: 0.0221
Hit10: 0.0281
Hit50: 0.0572
MR: 4573.3408
MRR: 0.0193"	"Hit3: 0.0186
Hit5: 0.0214
Hit10: 0.0264
Hit50: 0.0574
MR: 4533.3195
MRR: 0.0190"	"Hit3: 0.0189
Hit5: 0.0214
Hit10: 0.0264
Hit50: 0.0563
MR: 4565.0699
MRR: 0.0194"
