"0.0299|0.0455
0.0256|0.0851
0.0187|0.1575
0.0142|0.2455
0.0103|0.3730"	"0.0547|0.1006
0.0401|0.1429
0.0252|0.2198
0.0169|0.3009
0.0109|0.4011"	"0.0681|0.1267
0.0458|0.1660
0.0270|0.2406
0.0173|0.3100
0.0110|0.4114"	"0.0681|0.1267
0.0458|0.1660
0.0270|0.2406
0.0173|0.3100
0.0110|0.4114"	"0.0708|0.1361
0.0488|0.1844
0.0281|0.2648
0.0178|0.3383
0.0110|0.4232"	"0.0683|0.1348
0.0473|0.1796
0.0280|0.2593
0.0182|0.3478
0.0112|0.4333"
