"Hit3: 0.0067
Hit5: 0.0091
Hit10: 0.0148
Hit50: 0.0421
MR: 3866.1960
MRR: 0.0083"	"Hit3: 0.0095
Hit5: 0.0123
Hit10: 0.0178
Hit50: 0.0470
MR: 4135.3286
MRR: 0.0107"	"Hit3: 0.0141
Hit5: 0.0173
Hit10: 0.0237
Hit50: 0.0561
MR: 4404.3390
MRR: 0.0150"	"Hit3: 0.0176
Hit5: 0.0207
Hit10: 0.0265
Hit50: 0.0560
MR: 4557.2973
MRR: 0.0181"	"Hit3: 0.0192
Hit5: 0.0219
Hit10: 0.0279
Hit50: 0.0541
MR: 4644.9288
MRR: 0.0197"
