0.3977777778	0.4633333333	0.7111111111	0.6255555556	0.2833333333	0.5877777778	0.252
0.88	0.8644444444	0.9622222222	0.96	0.9155555556	0.95	0.9566666667
0.8988888889	0.8666666667	0.9666666667	0.9444444444	0.7933333333	0.9411111111	0.9588888889
0.7666666667	0.7622222222	0.7622222222	0.7566666667	0.7533333333	0.7633333333	0.7633333333
0.9744444444	0.9922222222	0.9788888889	0.9822222222	0.9755555556	0.9922222222	0.9733333333
0.2855555556	0.316	0.1011111111	0.3022222222	0.35	0.46	0.31
0.09555555556	0.07777777778	0.9144444444	0.9777777778	0.9711111111	1	1
0.6588888889	0.7711111111	0.7711111111	0.7277777778	0.5344444444	0.7287777778	0.5088888889
0.88	0.8855555556	0.8855555556	0.8866666667	0.8811111111	0.8877777778	0.8866666667
0.92	0.9333333333	0.9333333333	0.9344444444	0.91	0.9333333333	0.9344444444
0.7255555556	0.9244444444	0.9244444444	0.8388888889	0.7322222222	0.8444444444	0.9
0.6855555556	0.6844444444	0.6844444444	0.6844444444	0.6811111111	0.6866666667	0.6833333333
0.5788888889	0.5433333333	0.5433333333	0.7844444444	0.61	0.74	0.73
0.3222222222	0.9	0.9	0.8822222222	0.8777777778	0.8988888889	0.8688888889
0.4558175308	0.5047958676	0.7108983844	0.6420319373	0.3310523957	0.5996253315	0.3021021776
0.8690914053	0.8594840539	0.9188267454	0.919515638	0.8909893784	0.9117202058	0.9164636915
0.9026943982	0.883754231	0.9492832163	0.9386746348	0.8337804876	0.9346339337	0.9448077343
0.7302643491	0.7494338505	0.8242404142	0.7834263334	0.7246087428	0.7760524398	0.8116777584
0.7948866485	0.8034051129	0.7972826109	0.7985107383	0.7934704212	0.8033052525	0.7961645297
0.3821767215	0.3884476217	0.1683926934	0.4356297258	0.4447916667	0.5673333333	0.4351923077
0.1055970074	0.07789001122	0.9008568421	0.9217841017	0.9146230113	0.942104164	0.9258647635
0.57	0.6066666667	0.73	0.6855555556	0.5177777778	0.6688888889	0.5011111111
0.8766666667	0.8677777778	0.9122222222	0.9133333333	0.8922222222	0.91	0.9111111111
0.9111111111	0.8944444444	0.9488888889	0.9388888889	0.8633333333	0.9355555556	0.9444444444
0.7233333333	0.7511111111	0.8466666667	0.7988888889	0.7211111111	0.7788888889	0.83
0.7333333333	0.7422222222	0.7366666667	0.7366666667	0.7377777778	0.7422222222	0.7355555556
0.5333333333	0.52	0.5066666667	0.6333333333	0.56	0.64	0.59
0.4877777778	0.4955555556	0.8994444444	0.9133333333	0.9022222222	0.9322222222	0.9166666667
